100 302 128
302 100 128
50 51 25
1000 3400 217
2331 134 183
20394 2804 279
93084 944 351
9013 1408 262
3902 2084 238
1840 2480 209
11111 22222 279
22222 11111 279
290708 224090 443
2084 1084 182
18419 47108 324
4028 1047 238
2849 49718 324
2482 280 209
29224 24800 308
808014 924944 525
2940 2840 217
9103 1841 262
1390 4082 238
42 108 119
1499 4822 238
139 481 144
94 842 171
13 14 18
91 13 116
418 148 144
2 283 128
1 4 8
913 1384 182
842 2489 209
2849 27 209
193 418 144
49 149 122
183 137 125
419 427 59
924 4274 238
813 1479 182
183 1479 182
13080 41791 324
103 2497 209
1379 2479 209
1839 4297 238
1379 841 182
482 2048 182
8193 247 262
8194 4792 262
1849 4297 238
139 283 128
1398 4179 238
194 7419 262
1839 7942 262
924 2498 209
813 1984 182
1489 4197 238
8194 1379 262
1094 972 169
1389 4279 238
318 4207 238
90548 85390 333
7391 1497 262
1380 4972 238
8130 4072 262
1739 1380 180
4081 14008 276
184908 240842 443
275 240 123
138 4179 238
1308 207 182
13080 24709 282
1397 9713 262
19381 14701 279
5380 3579 238
81397 42794 351
13080 14900 276
13800 14804 271
4820 2408 238
103 479 144
1390 5279 238
48180 14940 324
57397 53793 322
543 279 144
9240 4208 262
248979 247249 350
1830 1370 180
90139 13801 351
24793 19914 282
138 480 144
138 137 91
1380 1379 128
1830 4279 238
1893 1379 180
7429 4729 262
183 2469 209
1309 1479 172
1830 2489 209
138038 180833 383
1308 1931 180
193 1479 182

